DIG,START,END,TOTAL DELAY
A,31-01-2018 04:00,01-02-2018 00:45,0.25
A,01-02-2018 00:45,03-02-2018 15:00,10
A,03-02-2018 16:15,04-02-2018 15:45,4.5
A,04-02-2018 15:45,04-02-2018 12:30,0.25
A,05-02-2018 12:30,06-02-2018 11:45,1.75
A,06-02-2018 11:30,07-02-2018 08:45,1
A,07-02-2018 15:45,08-02-2018 17:15,12
A,08-02-2018 17:15,09-02-2018 16:45,3.25
A,09-02-2018 17:30,10-02-2018 14:30,1.25
A,10-02-2018 14:30,11-02-2018 13:00,2
A,11-02-2018 13:00,12-02-2018 10:45,1.5
A,12-02-2018 10:45,13-02-2018 08:45,1.75
A,13-02-2018 09:30,14-02-2018 08:45,3.5
A,14-02-2018 08:45,16-02-2018 06:15,25
A,16-02-2018 06:15,16-02-2018 02:45,0
A,16-02-2018 02:45,17-02-2018 23:30,0.5
A,17-02-2018 23:30,18-02-2018 20:45,0.75
A,18-02-2018 20:45,19-02-2018 22:00,5.25
A,19-02-2018 22:00,20-02-2018 22:15,3
A,20-02-2018 22:15,21-02-2018 19:30,1
A,21-02-2018 20:00,22-02-2018 17:15,1.5
A,22-02-2018 17:15,23-02-2018 15:30,2
A,23-02-2018 15:30,24-02-2018 15:45,4
A,24-02-2018 15:45,26-02-2018 18:30,1.75
A,26-02-2018 18:30,27-02-2018 15:00,0
A,27-02-2018 15:30,28-02-2018 13:15,1.75
B,30-01-2018 20:45,31-01-2018 19:15,2.25
B,01-02-2018 19:15,02-02-2018 23:00,7.25
B,03-02-2018 18:30,04-02-2018 19:30,24.25
B,04-02-2018 19:30,05-02-2018 02:00,9.5
B,05-02-2018 02:15,06-02-2018 00:30,2.5
B,06-02-2018 00:30,07-02-2018 00:45,3.75
B,07-02-2018 01:00,08-02-2018 03:30,6.25
B,08-02-2018 03:30,09-02-2018 00:30,0.75
B,09-02-2018 00:45,10-02-2018 22:15,1.25
B,10-02-2018 22:30,11-02-2018 19:00,0.25
B,11-02-2018 19:00,12-02-2018 15:00,0
B,12-02-2018 13:15,13-02-2018 13:00,1.25
B,13-02-2018 13:00,14-02-2018 12:00,2.5
B,14-02-2018 12:00,16-02-2018 14:30,6.25
B,16-02-2018 14:45,17-02-2018 11:00,0.25
B,17-02-2018 11:00,18-02-2018 07:30,0.25
B,18-02-2018 07:30,18-02-2018 04:30,1
B,18-02-2018 04:30,20-02-2018 08:00,11
C,31-01-2018 08:15,01-02-2018 10:30,5.75
C,01-02-2018 10:30,02-02-2018 14:45,7.5
C,02-02-2018 14:45,03-02-2018 16:00,5
C,03-02-2018 17:30,04-02-2018 17:00,4.75
C,04-02-2018 17:00,05-02-2018 15:30,2.25
C,05-02-2018 16:15,06-02-2018 14:30,2.25
C,06-02-2018 14:30,07-02-2018 14:30,4
C,07-02-2018 14:30,08-02-2018 13:15,2.25
C,08-02-2018 13:15,09-02-2018 12:30,3
C,09-02-2018 12:30,10-02-2018 08:45,0
C,10-02-2018 04:15,11-02-2018 06:30,0.75
C,11-02-2018 07:00,11-02-2018 03:15,0.5
C,11-02-2018 03:05,11-02-2018 00:00,0.5
C,12-02-2018 00:15,13-02-2018 21:25,2.75
C,13-02-2018 23:15,14-02-2018 20:45,3
C,14-02-2018 20:45,16-02-2018 09:45,16.75
C,16-02-2018 11:00,17-02-2018 07:15,1.25
C,17-02-2018 07:30,17-02-2018 03:45,0.25
C,17-02-2018 03:45,18-02-2018 00:15,0
C,18-02-2018 00:15,19-02-2018 21:00,0.75
C,19-02-2018 21:00,20-02-2018 18:15,1
C,20-02-2018 19:45,21-02-2018 16:45,2.25
C,21-02-2018 17:15,22-02-2018 14:30,1.75
C,22-02-2018 17:00,23-02-2018 14:15,3.5
C,23-02-2018 15:00,24-02-2018 14:15,3.5
C,24-02-2018 15:15,26-02-2018 21:30,2.25
C,26-02-2018 21:30,27-02-2018 20:45,2.25
C,27-02-2018 20:45,28-02-2018 19:45,2.5
D,30-01-2018 05:00,01-02-2018 06:45,6.25
D,01-02-2018 07:00,02-02-2018 19:00,18.75
D,22-02-2018 13:15,23-02-2018 10:45,1.5
D,23-02-2018 11:15,24-02-2018 11:30,4.5
D,24-02-2018 11:30,26-02-2018 11:30,1.5
D,26-02-2018 11:30,27-02-2018 10:00,2
D,27-02-2018 10:45,27-02-2018 08:45,2.5
E,31-01-2018 04:45,02-02-2018 19:15,18
E,02-02-2018 19:15,04-02-2018 00:15,9.25
E,04-02-2018 16:15,05-02-2018 18:45,22
E,05-02-2018 19:00,06-02-2018 21:00,5.75
E,06-02-2018 21:00,07-02-2018 19:15,2
E,20-02-2018 12:45,21-02-2018 10:00,1
E,21-02-2018 10:00,22-02-2018 08:45,2.25
E,22-02-2018 08:45,22-02-2018 05:00,0
E,22-02-2018 05:00,23-02-2018 05:15,4.25
E,24-02-2018 06:30,26-02-2018 12:45,2.25
E,26-02-2018 12:45,27-02-2018 12:00,2.75
E,27-02-2018 12:00,28-02-2018 09:45,1.5
G,31-01-2018 23:45,01-02-2018 21:15,1
G,01-02-2018 22:30,03-02-2018 10:00,13.25
G,03-02-2018 12:45,04-02-2018 11:00,4.75
G,04-02-2018 11:00,05-02-2018 09:00,1.5
G,05-02-2018 09:00,06-02-2018 07:15,1.75
G,06-02-2018 07:30,07-02-2018 05:15,1.5
G,07-02-2018 06:00,07-02-2018 04:15,2.5
G,07-02-2018 04:15,08-02-2018 04:45,4.25
G,08-02-2018 04:45,09-02-2018 03:30,2.5
G,09-02-2018 03:30,10-02-2018 02:30,2.5
G,10-02-2018 04:00,11-02-2018 00:45,2
G,11-02-2018 00:45,12-02-2018 22:30,0
G,12-02-2018 22:45,13-02-2018 21:30,2.5
G,13-02-2018 21:30,14-02-2018 19:45,2
G,14-02-2018 19:45,15-02-2018 18:15,2
G,15-02-2018 18:15,16-02-2018 15:00,0.25
G,16-02-2018 15:00,17-02-2018 13:00,2
G,17-02-2018 13:00,18-02-2018 10:00,0.75
G,18-02-2018 10:00,19-02-2018 07:45,1.5
G,19-02-2018 20:00,20-02-2018 19:15,15
G,20-02-2018 19:15,21-02-2018 15:45,12.25
G,21-02-2018 16:30,22-02-2018 14:45,2.75
G,22-02-2018 15:00,23-02-2018 11:45,0.75
G,23-02-2018 13:15,24-02-2018 12:30,4.75
G,24-02-2018 12:45,26-02-2018 16:45,1.5
G,26-02-2018 16:45,27-02-2018 19:45,6
G,27-02-2018 19:45,28-02-2018 17:15,1
H,31-01-2018 02:15,01-02-2018 23:45,1.25
H,02-02-2018 01:00,03-02-2018 14:45,15.75
H,03-02-2018 15:00,04-02-2018 14:45,4
H,04-02-2018 15:00,05-02-2018 11:30,0.25
H,05-02-2018 11:30,06-02-2018 12:30,4.75
H,06-02-2018 15:00,07-02-2018 15:00,6.5
H,07-02-2018 15:15,08-02-2018 14:15,2.75
H,08-02-2018 14:15,09-02-2018 14:00,3.75
H,09-02-2018 14:15,10-02-2018 17:30,7
H,10-02-2018 17:30,11-02-2018 14:00,0.25
H,11-02-2018 14:00,12-02-2018 11:45,1.75
H,12-02-2018 11:45,13-02-2018 10:45,2.5
H,13-02-2018 11:15,14-02-2018 07:45,1
H,14-02-2018 07:45,14-02-2018 04:00,0
H,14-02-2018 04:00,15-02-2018 00:30,0
H,15-02-2018 01:45,16-02-2018 23:00,2
H,16-02-2018 23:00,17-02-2018 21:30,2
H,17-02-2018 21:30,18-02-2018 18:15,0.25
H,18-02-2018 08:15,19-02-2018 16:00,2
H,19-02-2018 16:30,20-02-2018 13:15,0.75
H,20-02-2018 14:00,21-02-2018 13:15,3.75
H,21-02-2018 16:00,22-02-2018 12:15,2.75
H,22-02-2018 12:15,22-02-2018 08:30,0
H,23-02-2018 10:45,24-02-2018 08:30,3.75
H,24-02-2018 08:30,26-02-2018 10:30,2.75
H,26-02-2018 10:30,26-02-2018 06:45,0
H,27-02-2018 06:45,27-02-2018 04:45,1.5
H,27-02-2018 04:45,28-02-2018 02:00,1
